InterestBusinessCalendar;/BA1C/CNDCLND
Austria;AT
Belgium;BE
Bulgaria;BG
Croatia;HR
CzechRepublic;CZ
Denmark;DK
Estonia;EE
Finland;FI
France;FR
FranceAlsace;EL
GermanyBadenWuerttembergWith6WorkdaysMoSa;W6
GermanyBadenWuerttembergWith7WorkdaysMoSu;W7
GermanyBavaria;09
GermanyBerlin;11
GermanyBrandenburg;12
GermanyBremen;05
GermanyHamburg;03
GermanyHesse;07
GermanyLowerSaxony;04
GermanyMecklenburg;15
GermanyNorthRhineWestphalia;06
GermanyRhinelandPalatinate;08
GermanySaarland;10
GermanySaxony;16
GermanySaxonyAnhalt;13
GermanySchleswigHolstein;02
GermanyStandard;01
GermanyThuringia;14
GreatBritainScotland;GS
Greece;GR
Hungary;HU
India;IN
International;99
Ireland;IE
Italy;IT
Lithuania;LT
Luxembourg;LU
Netherlands;NL
NorthernIreland;GN
Norway;NO
Poland;PL
Portugal;PT
Romania;RO
SlovakRepublic;SK
SpainCatalonia;E2
SpainMadrid;E1
SpainStandard;ES
Sweden;SE
Switzerland;CH
Target;Y4
USA;US
